Probabilistic Record Linkage Using PreTrained Text Embeddings • fuzzylink
…
Step 3: Create a Training Set

We would like to use those cosine similarity scores to predict whether two names refer to the same entity. In order to do that, we need to first create a labeled dataset to fit a statistical model. The get_training_set() function selects a sample of name pairs and labels them using the following prompt to GPT-4 (brackets denote input variables).

Decide if the following two names refer to the same {record_type}. Misspellings, alternative names, and acronyms may be acceptable matches. Think carefully. Respond "Yes" or "No".'

Name A: {A}
Name B: {B}
Response:

train <- get_training_set(list(sim), record_type = 'person')
train
#> # A tibble: 40 × 5
#>    A              B                              sim    jw match
#>    <fct>          <fct>                        <dbl> <dbl> <chr>
#>  1 Joe Biden      "Barack Hussein Obama"       0.531 0.535 No   
#>  2 Barack Obama   "Biff Tannen"                0.255 0.457 No   
#>  3 Donald Trump   "Biff Tannen"                0.344 0.399 No   
#>  4 Bill Clinton   "Joseph Robinette Biden"     0.489 0.480 No   
#>  5 Donald Trump   "William Jefferson Clinton"  0.447 0.372 No   
#>  6 Donald Trump   "Donald John Trump "         0.839 0.933 Yes  
#>  7 George W. Bush "Donald John Trump "         0.488 0.445 No   
#>  8 Joe Biden      "Joe Riley"                  0.391 0.867 No   
#>  9 George W. Bush "Joe Riley"                  0.361 0.410 No   
#> 10 Bill Clinton   "George Herbert Walker Bush" 0.595 0.371 No   
#> # ℹ 30 more rows
…
