Joseph T. Ornstein - The SRP Package
…
The SRP package is currently available on GitHub. You can install it using the devtools package. You’ll also want to load the tidyverse library for this vignette.

devtools::install_github('joeornstein/SRP')
library(SRP)
library(tidyverse)

The Data

The dataset (trainset) contains individual-level data on public opinion and demographic characteristics. It is simulated data, generated from the Monte Carlo in Ornstein (2020). It contains the following variables:

trainset <- SRP::vignetteData

trainset
#> # A tibble: 3,000 × 8
#>         ID      y    x1    x2  unit latitude longitude unit_covariate
#>      <int>  <dbl> <int> <int> <int>    <dbl>     <dbl>          <dbl>
#>  1  638233 -2.68      2     1    43    0.663    0.140            2.22
#>  2 1909280  2.01      3     3   128    0.987    0.504            2.64
#>  3 2513825 -4.36      1     2   168    0.752    0.746            2.84
#>  4 2968824 -0.989     2     3   198    0.764    0.190            3.27
#>  5  258017  4.18      1     1    18    0.545    0.897            2.00
#>  6 1252503 -4.54      3     3    84    0.770    0.195            2.43
#>  7 1414783 -3.63      2     2    95    0.518    0.0937           2.47
#>  8  602889  3.56      3     3    41    0.162    0.559            2.20
#>  9  157609  0.271     2     2    11    0.431    0.554            1.93
#> 10 2610832  5.99      4     4   175    0.898    0.932            2.91
#> # ℹ 2,990 more rows

The variable \(y\) is our outcome of interest, \(x_1\) and \(x_2\) are individual-level covariates, unit is the subnational unit ID, and latitude, longitude, and unit_covariate are characteristics of the subnational unit.

Disaggregation

Disaggregation is the most straightforward method to estimate. Simply take the unit-level means from the national survey. Note, however, that the number of observations within each unit is fairly small. As a result, disaggregation is unlikely to yield good estimates. This is why we adopt a model-based approach.

disag_estimates <- trainset %>% 
  group_by(unit) %>% 
  summarise(disag_estimate = mean(y),
            num = n())

disag_estimates
#> # A tibble: 200 × 3
#>     unit disag_estimate   num
#>    <int>          <dbl> <int>
#>  1     1          -6.15    14
#>  2     2           2.61    14
#>  3     3          -4.10    16
#>  4     4          -3.45    15
#>  5     5          -3.63    10
#>  6     6          -5.40    21
#>  7     7          -2.74    15
#>  8     8          -2.95    18
#>  9     9          -1.61    15
#> 10    10          -1.48    16
#> # ℹ 190 more rows
…
Poststratify by taking the mean of each group’s prediction weighted by their frequency in the subnational unit.

We can estimate the first-stage regression using the lme4 package.

library(lme4)

model1 <- lmer(y ~ (1|x1) + (1|x2) + unit_covariate + (1|unit), data = trainset)

For the second stage, we need a poststratification frame. For the SRP package, it should come in the following format.

PSFrame <- SRP::vignettePSFrame

PSFrame
#> # A tibble: 3,200 × 7
#>     unit    x1    x2  freq unit_covariate latitude longitude
#>    <int> <int> <int> <int>          <dbl>    <dbl>     <dbl>
#>  1     1     1     1  5482           1.54    0.623    0.0647
#>  2     1     1     2  2497           1.54    0.623    0.0647
#>  3     1     1     3   499           1.54    0.623    0.0647
#>  4     1     1     4    43           1.54    0.623    0.0647
#>  5     1     2     1  2418           1.54    0.623    0.0647
#>  6     1     2     2  1817           1.54    0.623    0.0647
#>  7     1     2     3   603           1.54    0.623    0.0647
#>  8     1     2     4    58           1.54    0.623    0.0647
#>  9     1     3     1   557           1.54    0.623    0.0647
#> 10     1     3     2   590           1.54    0.623    0.0647
#> # ℹ 3,190 more rows

Each row reports the empirical frequency for each unique combination of individual-level characteristics, repeated for each subnational unit. For example, the first row reports that there are 5482 individuals with \(x_1 = 1\) and \(x_2 = 1\) in Unit 1.

Once we have both pieces of information – the predictions and the frequencies – poststratification simply requires taking a weighted average, using the poststratify function. Note that this function requires your poststratification frame to have two particular variables:

unit: the identity of the subnational unit.

freq: the empirical frequency for each cell.

pred <- predict(model1, PSFrame, allow.new.levels = T)

mrp_estimates <- poststratify(pred, PSFrame)

mrp_estimates
#> # A tibble: 200 × 2
#>     unit poststratifiedEstimate
#>    <int>                  <dbl>
#>  1     1                  -3.54
#>  2     2                  -1.38
#>  3     3                  -2.72
#>  4     4                  -2.49
#>  5     5                  -2.39
#>  6     6                  -2.96
#>  7     7                  -2.06
#>  8     8                  -2.27
#>  9     9                  -1.76
#> 10    10                  -1.66
#> # ℹ 190 more rows
…
To get the synthetic joint distribution, just call getSyntheticPSFrame(). Note that the resulting output is consistent with the marginal frequency distributions; add up all the observations with race == 1 in and it should yield the same frequency from PSFrame1.

PSFrame <- getSyntheticPSFrame(PSFrame1, PSFrame2)

PSFrame
#> # A tibble: 24 × 4
#>     unit  race education  freq
#>    <int> <int>     <int> <dbl>
#>  1     1     1         1    25
#>  2     1     1         2    30
#>  3     1     1         3    45
#>  4     1     2         1    50
#>  5     1     2         2    60
#>  6     1     2         3    90
#>  7     1     3         1    75
#>  8     1     3         2    90
#>  9     1     3         3   135
#> 10     1     4         1   100
#> # ℹ 14 more rows
…
PSFrame3 <- SRP::sex

PSFrame3
#> # A tibble: 4 × 3
#>    unit   sex  freq
#>   <int> <int> <int>
#> 1     1     1   600
#> 2     1     2   400
#> 3     2     1   500
#> 4     2     2   500

PSFrame <- getSyntheticPSFrame(PSFrame, PSFrame3)

PSFrame
#> # A tibble: 48 × 5
#>     unit  race education   sex  freq
#>    <int> <int>     <int> <int> <dbl>
#>  1     1     1         1     1    15
#>  2     1     1         1     2    10
#>  3     1     1         2     1    18
#>  4     1     1         2     2    12
#>  5     1     1         3     1    27
#>  6     1     1         3     2    18
#>  7     1     2         1     1    30
#>  8     1     2         1     2    20
#>  9     1     2         2     1    36
#> 10     1     2         2     2    24
#> # ℹ 38 more rows
…
