fuzzylink
…
Step 3: Label A Training Set

GPT-4o Prompt:

Decide if the following two names refer to the same person. Think carefully. Respond Yes or No.

fuzzylink::check_match('Joe Biden', 'Joseph Robinette Biden', 
                       record_type = 'person')

[1] "Yes"

train <- fuzzylink::get_training_set(sim, record_type = 'person')
train

# A tibble: 35 × 5
   A              B                             sim    jw match
   <fct>          <fct>                       <dbl> <dbl> <chr>
 1 Bill Clinton   "Biff Tannen"               0.221 0.699 No   
 2 George W. Bush "Joseph Robinette Biden"    0.494 0.520 No   
 3 Bill Clinton   "Joseph Robinette Biden"    0.489 0.480 No   
 4 Joe Biden      "Joseph Robinette Biden"    0.767 0.721 Yes  
 5 Donald Trump   "Donald John Trump "        0.839 0.933 Yes  
 6 Bill Clinton   "Barack Hussein Obama"      0.517 0.56  No   
 7 Barack Obama   "Donald John Trump "        0.476 0.472 No   
 8 Joe Biden      "Donald John Trump "        0.553 0.444 No   
 9 Bill Clinton   "William Jefferson Clinton" 0.873 0.579 Yes  
10 Bill Clinton   "Joe Riley"                 0.319 0.361 No   
# ℹ 25 more rows
…
