Text As Data: The Bag of Words
…
library(tidyverse)
library(tidytext)

# load the data from the sotu package
df <- sotu::sotu_meta |> 
  mutate(text = sotu::sotu_text,
         speech_id = 1:length(sotu::sotu_text)) |> 
  select(speech_id, president, year, text)

df

# A tibble: 236 x 4
   speech_id president          year text                             
       <int> <chr>             <int> <chr>                            
 1         1 George Washington  1790 "Fellow-Citizens of the Senate a~
 2         2 George Washington  1790 "\n\n Fellow-Citizens of the Sen~
 3         3 George Washington  1791 "\n\n Fellow-Citizens of the Sen~
 4         4 George Washington  1792 "Fellow-Citizens of the Senate a~
 5         5 George Washington  1793 "\n\n Fellow-Citizens of the Sen~
 6         6 George Washington  1794 "\n\n Fellow-Citizens of the Sen~
 7         7 George Washington  1795 "\n\nFellow-Citizens of the Sena~
 8         8 George Washington  1796 "\n\n Fellow-Citizens of the Sen~
 9         9 John Adams         1797 "\n\n Gentlemen of the Senate an~
10        10 John Adams         1798 "\n\n Gentlemen of the Senate an~
# ... with 226 more rows

# split into sentences
tidy_sotu <- df |> 
  unnest_tokens(input = 'text',
                output = 'sentence',
                token = 'sentences') |> 
  # keep only the sentences that contain the word stem "manufactu"
  filter(str_detect(sentence, 'manufactu'))

tidy_sotu

# A tibble: 507 x 4
   speech_id president          year sentence                         
       <int> <chr>             <int> <chr>                            
 1         1 George Washington  1790 the advancement of agriculture, ~
 2         3 George Washington  1791 your own observations in your re~
 3         7 George Washington  1795 our agriculture, commerce, and m~
 4         8 George Washington  1796 congress have repeatedly, and no~
 5         8 George Washington  1796 as a general rule, manufactures ~
 6         9 John Adams         1797 our agriculture, fisheries, arts~
 7        12 John Adams         1800 the manufacture of arms within t~
 8        12 John Adams         1800 at a considerable expense to the~
 9        13 Thomas Jefferson   1801 agriculture, manufactures, comme~
10        14 Thomas Jefferson   1802 to cultivate peace and maintain ~
# ... with 497 more rows
…
Now that we have the corpus of text were interested in studying, we
can tokenize to the word level (using the same
unnest_tokens() function) to create our bag of words.

tidy_sotu <- tidy_sotu |> 
  unnest_tokens(input = 'sentence',
                output = 'word') |> 
  # we're just interested in words that occur near manufacturing, so remove
  # the manufacturing words themselves
  filter(str_detect(word, 'manufactu', negate = TRUE))

tidy_sotu

# A tibble: 22,380 x 4
   speech_id president          year word       
       <int> <chr>             <int> <chr>      
 1         1 George Washington  1790 the        
 2         1 George Washington  1790 advancement
 3         1 George Washington  1790 of         
 4         1 George Washington  1790 agriculture
 5         1 George Washington  1790 commerce   
 6         1 George Washington  1790 and        
 7         1 George Washington  1790 by         
 8         1 George Washington  1790 all        
 9         1 George Washington  1790 proper     
10         1 George Washington  1790 means      
# ... with 22,370 more rows
…
Because there are so many words in the English language, it
can be advantageous to reduce the sparseness of the bag of words a bit.
We can do so by removing stop words (words like articles and
prepositions that are common but do not themselves contain meaning) and
representing words with their stem (so words like duties and duty
are represented by the same word stem, duti).

# remove stopwords
tidy_sotu <- tidy_sotu |> 
  anti_join(get_stopwords())

tidy_sotu

# A tibble: 10,967 x 4
   speech_id president          year word          
       <int> <chr>             <int> <chr>         
 1         1 George Washington  1790 advancement   
 2         1 George Washington  1790 agriculture   
 3         1 George Washington  1790 commerce      
 4         1 George Washington  1790 proper        
 5         1 George Washington  1790 means         
 6         1 George Washington  1790 trust         
 7         1 George Washington  1790 need          
 8         1 George Washington  1790 recommendation
 9         1 George Washington  1790 can           
10         1 George Washington  1790 forbear       
# ... with 10,957 more rows
…
wordStem('duty')

[1] "duti"

wordStem('duties')

[1] "duti"

tidy_sotu <- tidy_sotu |> 
  mutate(word_stem = wordStem(word))

tidy_sotu

# A tibble: 10,967 x 5
   speech_id president          year word           word_stem 
       <int> <chr>             <int> <chr>          <chr>     
 1         1 George Washington  1790 advancement    advanc    
 2         1 George Washington  1790 agriculture    agricultur
 3         1 George Washington  1790 commerce       commerc   
 4         1 George Washington  1790 proper         proper    
 5         1 George Washington  1790 means          mean      
 6         1 George Washington  1790 trust          trust     
 7         1 George Washington  1790 need           need      
 8         1 George Washington  1790 recommendation recommend 
 9         1 George Washington  1790 can            can       
10         1 George Washington  1790 forbear        forbear   
# ... with 10,957 more rows
…
