Introduction to Political Methodology - Week 10: Data Wrangling
…
Much better!

There’s a variable in CES called birthyr. What if we wanted to know the respondents age in 2020 instead? The mutate() function can help us here too.

ces_clean |> 
  count(birthyr)

# A tibble: 78 × 2
   birthyr     n
     <dbl> <int>
 1    1925     2
 2    1926     6
 3    1927    10
 4    1928    12
 5    1929    23
 6    1930    23
 7    1931    42
 8    1932    55
 9    1933    76
10    1934   109
# ℹ 68 more rows

ces_clean <- ces_clean |> 
  mutate(age = 2020 - birthyr)

ces_clean |> 
  count(birthyr, age)

# A tibble: 78 × 3
   birthyr   age     n
     <dbl> <dbl> <int>
 1    1925    95     2
 2    1926    94     6
 3    1927    93    10
 4    1928    92    12
 5    1929    91    23
 6    1930    90    23
 7    1931    89    42
 8    1932    88    55
 9    1933    87    76
10    1934    86   109
# ℹ 68 more rows

Joining Datasets

Here’s another messy feature of this dataset. Every respondent has a variable called inputstate, representing the state where they live.

ces_clean |> 
  count(inputstate)

# A tibble: 51 × 2
   inputstate     n
        <dbl> <int>
 1          1   947
 2          2   115
 3          4  1463
 4          5   536
 5          6  5035
 6          8  1061
 7          9   642
 8         10   240
 9         11   197
10         12  4615
# ℹ 41 more rows
…
And I can join that information with the CES data like this.

ces_clean <- ces_clean |> 
  left_join(state_fips, by = 'inputstate')

ces_clean |> 
  count(inputstate, state_name)

# A tibble: 51 × 3
   inputstate state_name               n
        <dbl> <chr>                <int>
 1          1 Alabama                947
 2          2 Alaska                 115
 3          4 Arizona               1463
 4          5 Arkansas               536
 5          6 California            5035
 6          8 Colorado              1061
 7          9 Connecticut            642
 8         10 Delaware               240
 9         11 District of Columbia   197
10         12 Florida               4615
# ℹ 41 more rows
…
